^D:\STUDY\LABS\SP\LAB_5\LAB\LAB\DEBUG\MAIN.OBJ
D:\STUDY\LABS\SP\LAB_5\LAB\DEBUG\LAB.EXE
D:\STUDY\LABS\SP\LAB_5\LAB\DEBUG\LAB.ILK
D:\STUDY\LABS\SP\LAB_5\LAB\DEBUG\LAB.PDB
^D:\SP\LAB5\DEBUG\MAIN.OBJ
D:\SP\LAB5\DEBUG\LAB.ILK
D:\SP\LAB5\DEBUG\LAB.EXE
D:\SP\LAB5\DEBUG\LAB.PDB
