^D:\STUDY\LABS\SP\LAB_5\LAB\LAB\DEBUG\MAIN.OBJ
/OUT:"D:\STUDY\LABS\SP\LAB_5\LAB\DEBUG\LAB.EXE" /INCREMENTAL /NOLOGO KERNEL32.LIB USER32.LIB GDI32.LIB WINSPOOL.LIB COMDLG32.LIB ADVAPI32.LIB SHELL32.LIB OLE32.LIB OLEAUT32.LIB UUID.LIB ODBC32.LIB ODBCCP32.LIB /MANIFEST /MANIFESTUAC:"level='asInvoker' uiAccess='false'" /manifest:embed /DEBUG:FASTLINK /PDB:"D:\STUDY\LABS\SP\LAB_5\LAB\DEBUG\LAB.PDB" /SUBSYSTEM:WINDOWS /TLBID:1 /DYNAMICBASE /NXCOMPAT /IMPLIB:"D:\STUDY\LABS\SP\LAB_5\LAB\DEBUG\LAB.LIB" /MACHINE:X86 DEBUG\MAIN.OBJ
^D:\SP\LAB5\DEBUG\MAIN.OBJ
/OUT:"D:\SP\LAB5\DEBUG\LAB.EXE" /INCREMENTAL /NOLOGO KERNEL32.LIB USER32.LIB GDI32.LIB WINSPOOL.LIB COMDLG32.LIB ADVAPI32.LIB SHELL32.LIB OLE32.LIB OLEAUT32.LIB UUID.LIB ODBC32.LIB ODBCCP32.LIB /MANIFEST /MANIFESTUAC:"level='asInvoker' uiAccess='false'" /manifest:embed /DEBUG:FASTLINK /PDB:"D:\SP\LAB5\DEBUG\LAB.PDB" /SUBSYSTEM:WINDOWS /TLBID:1 /DYNAMICBASE /NXCOMPAT /IMPLIB:"D:\SP\LAB5\DEBUG\LAB.LIB" /MACHINE:X86 DEBUG\MAIN.OBJ
