^D:\SP\LAB7\STDAFX.CPP
D:\SP\LAB7\DEBUG\LAB7.PCH
D:\SP\LAB7\DEBUG\VC142.PDB
D:\SP\LAB7\DEBUG\VC142.IDB
D:\SP\LAB7\DEBUG\STDAFX.OBJ
^D:\SP\LAB7\LAB7.CPP
D:\SP\LAB7\DEBUG\VC142.PDB
D:\SP\LAB7\DEBUG\VC142.IDB
D:\SP\LAB7\DEBUG\LAB7.OBJ
