^D:\SP\LAB2\LAB7.RC
/D _UNICODE /D UNICODE /l"0x0409" /nologo /fo"DEBUG\LAB7.RES"  D:\SP\LAB2\LAB7.RC
^D:\SP\LAB7\LAB7.RC
/D _UNICODE /D UNICODE /l"0x0409" /nologo /fo"DEBUG\LAB7.RES"  D:\SP\LAB7\LAB7.RC
